PM2 and PM10 concentrations
…
`summarise()` has grouped output by 'Station.name'. You can override using the
`.groups` argument.

# A tibble: 52 × 9
# Groups:   Station.name [4]
   Station.name  Year NA_date NA_PM2 NA_PM10 NA_Vis NA_WD NA_WS NA_OPC
   <chr>        <int>   <int>  <int>   <int>  <int> <int> <int>  <int>
 1 Dalanzadgad   2008    4630   1543    1672   1463  1566  1566   4630
 2 Dalanzadgad   2009    8760    715     929    659   748   748   8760
 3 Dalanzadgad   2010    8784    921    1086    756   787   787   8784
 4 Dalanzadgad   2011    8760   2652    3309   1759  2394  2394   8760
 5 Dalanzadgad   2012    5088   1074    3016    693  1412  1412   5088
 6 Dalanzadgad   2013    6096   1766    1809   2479  1240  1240   6096
 7 Dalanzadgad   2014    7800    843     921   6068  1482  1482   7800
 8 Dalanzadgad   2015    8760   1539    1587   8115  2635  2635   8760
 9 Dalanzadgad   2016    6288   1654    1613   5995  3306  3306   6288
10 Dalanzadgad   2017    3264     36      45   3264  3264  3264   3264
# ℹ 42 more rows
…
