01_datawork
…
`summarise()` has grouped output by 'Station.name'. You can override using the
`.groups` argument.

Table_NA_by_Year

# A tibble: 35 × 9
# Groups:   Station.name [4]
   Station.name  Year NA_date NA_PM2 NA_PM10 NA_Vis NA_WD NA_WS NA_OPC
   <chr>        <int>   <int>  <int>   <int>  <int> <int> <int>  <int>
 1 Dalanzadgad   2009    8760    715     929    659   748   748   8760
 2 Dalanzadgad   2010    8784    921    1086    756   787   787   8784
 3 Dalanzadgad   2011    8760   2652    3309   1759  2394  2394   8760
 4 Dalanzadgad   2012    5088   1074    3016    693  1412  1412   5088
 5 Dalanzadgad   2013    6096   1766    1809   2479  1240  1240   6096
 6 Dalanzadgad   2014    7800    843     921   6068  1482  1482   7800
 7 Dalanzadgad   2015    8760   1539    1587   8115  2635  2635   8760
 8 Dalanzadgad   2016    6288   1654    1613   5995  3306  3306   6288
 9 Sainshand     2009    8688    376     424    423   587   587   8688
10 Sainshand     2010    8784   2557    2577   1113  1210  1210   8784
# ℹ 25 more rows
…
Remove the spikes, and produce an extended table

Remove the spikes in the datasets, and produce the table with NA, with removed spikes; express it in a percentages. ### Remove the spikes Method 1. Mean value +- (3-5)SD - Find Monthly mean

In [8]:

df_02 <- df_01 |>
  filter(Station.name=="UB" ) |>
  drop_na(PM2, PM10) |>
    dplyr::mutate_at(vars(PM2, PM10), 
                   ~ ifelse(near(., mean(.), sd(.) * 3), ., "Outlier")) |>
  dplyr::filter_if(is.character, any_vars(. == "Outlier"))
df_02

# A tibble: 1,798 × 12
    Year Month   Day  Hour PM2   PM10  Visibility    WD    WS   OPC Station.name
   <int> <int> <int> <int> <chr> <chr>      <int> <int> <dbl> <int> <chr>       
 1  2009     1     2    17 Outl… 0.29        3622   141 0.524    NA UB          
 2  2009     1     3    12 Outl… 0.446       2399   109 0.117    NA UB          
 3  2009     1     3    13 Outl… 0.288       1347    17 0.492    NA UB          
 4  2009     1     3    14 Outl… 0.504       1241    12 0.829    NA UB          
 5  2009     1     3    15 Outl… 0.478       1341    11 0.39     NA UB          
 6  2009     1     3    16 Outl… 0.449       2945   136 0.123    NA UB          
 7  2009     1     3    18 Outl… 0.341       1436    13 0.742    NA UB          
 8  2009     1     3    19 Outl… 0.397       1847    13 0.453    NA UB          
 9  2009     1     3    20 Outl… 0.297       3359    22 0.462    NA UB          
10  2009     1     4     2 Outl… 0.311       3167    96 0.759    NA UB          
# ℹ 1,788 more rows
# ℹ 1 more variable: Date <chr>

In [9]:

df_02 <- df_01 |>
  drop_na(PM2, PM10) |>
    dplyr::mutate_at(vars(PM2, PM10), 
                   ~ ifelse(near(., mean(., .by = c(Station.name, Month)), sd(.) * 3), ., "Outlier")) |>
  dplyr::filter_if(is.character, any_vars(. == "Outlier"))
df_02

# A tibble: 4,014 × 12
    Year Month   Day  Hour PM2   PM10  Visibility    WD    WS   OPC Station.name
   <int> <int> <int> <int> <chr> <chr>      <int> <int> <dbl> <int> <chr>       
 1  2009     1     3    15 Outl… 0.292       3444   119 0.856    NA Dalanzadgad 
 2  2009     1     5    13 Outl… 0.419       1383   260 1.7      NA Dalanzadgad 
 3  2009     1     5    14 Outl… 0.415       1072   266 1.84     NA Dalanzadgad 
 4  2009     1     5    15 Outl… 0.466       1099   261 0.83     NA Dalanzadgad 
 5  2009     1     5    16 Outl… 0.509       1814   260 0.788    NA Dalanzadgad 
 6  2009     1     6     0 Outl… 0.547        744   248 1.23     NA Dalanzadgad 
 7  2009     1     6     1 Outl… 0.728       1093   277 0.738    NA Dalanzadgad 
 8  2009     1     6     2 Outl… 0.597       1723     0 1.62     NA Dalanzadgad 
 9  2009     1     6     3 Outl… 0.33        8186    95 1.1      NA Dalanzadgad 
10  2009     1     6    11 Outl… 0.39        1150   258 1.48     NA Dalanzadgad 
# ℹ 4,004 more rows
# ℹ 1 more variable: Date <chr>
…
